###JUNKLINE. IS DISREGARDED IN PARSING
Level_2_Final
Loading Voice Level
-0.007952113; time at start
21.66311; instruction start
24.51385; move down
30.60649; 10
33.09855; instruction end
66.05141; move up
67.96663; 10
73.08058; instruction end
91.78146; move left
107.2949; 2
109.9694; instruction end
114.8954; move left
121.3681; 2
126.9369; instruction end
133.6883; move left
136.5964; 2
138.9388; instruction end
142.1702; move up
164.6428; 10
167.5336; instruction end
176.3056; move left
179.7634; 3
182.1654; instruction end
195.7403; move left
197.7183; 7
200.7826; instruction end
200.872; item collected
211.7013; move left
218.495; 5
222.2845; move down
224.6327; 5
227.109; instruction end
231.9501; move up
257.9093; 15
261.237; move left
290.9943; instruction end
292.112; switch activated
296.5298; move down
299.3156; 10
302.1612; move left
304.0258; 13
310.074; instruction end
315.5236; move to
333.0251; instruction end
339.0161; move down
341.6478; 3
346.5223; instruction end
346.7921; item collected
349.785; move up
352.6656; 10
355.0507; move right
360.4858; 15
363.5703; instruction end
371.4055; move down
374.9598; 13
377.6859; move right
382.9826; 3
385.7528; instruction end
389.592; move down
391.5583; 5
394.2263; instruction end
398.0458; move left
400.6631; 2
402.4348; instruction end
404.6412; move up
416.1244; 2
419.3014; instruction end
421.5148; move right
424.6993; 2
427.5134; instruction end
427.692; item collected
433.5636; move right
435.2966; 2
437.0343; move up
438.4429; 10
440.9199; instruction end
443.7334; move up
448.1947; 15
450.8633; instruction end
457.1753; move right
467.821; 2
471.6044; move up
473.5026; 15
475.9059; instruction end
477.0721; switch activated
481.2898; move down
484.2241; 20
486.7263; instruction end
492.2032; move left
495.3074; 20
497.7899; instruction end
502.0902; move down
504.5323; 2
507.1463; move left
516.1928; 5
519.1601; instruction end
522.8599; move down
525.7644; 7
528.1107; move right
529.5322; 3
532.4918; instruction end
539.2819; move left
541.5083; 2
544.7133; move down
548.9238; 4
552.4337; move right
558.2095; 5
560.8719; instruction end
568.1514; move right
570.9687; 6
572.786; instruction end
581.9879; move down
583.9893; 6
586.0903; instruction end
590.8248; move right
601.6599; 10
607.002; instruction end
611.6042; move up
619.3254; 13
622.0906; instruction end
624.3063; move right
648.5432; 5
652.0499; instruction end
654.8937; move down
656.8261; 5
659.4968; move left
660.9047; 3
663.2632; instruction end
667.5082; move down
LEVEL LOAD OVERRIDE
Loading Keyboard Level
-0.007259906; time at start
6.792727; move down
9.180401; 10
10.18574; end
23.14945; move up
28.96398; 12
30.62169; end
36.66677; move left
39.70799; 5
40.27592; end
45.05835; move down
46.06942; 3
48.80654; end
49.31274; item collected
54.11126; move up
54.78416; 10
58.10464; move left
59.84525; 3
62.08935; move up
63.90195; 2
66.43468; move left
67.44809; 3
68.22582; end
71.83164; move up
72.7793; 5
74.00868; end
76.98148; move left
79.8507; 20
80.42092; end
80.79274; item collected
82.45274; switch activated
85.04324; move down
85.76244; 10
86.47163; end
87.99274; item collected
88.80623; move up
92.30631; 10
97.84671; move right
98.33678; 20
99.67919; end
106.7906; move down
110.8252; 15
114.5418; move right 15
117.037; move right
117.5348; 15
118.1262; end
123.8137; move up
125.6753; 20
126.4829; end
127.4927; switch activated
127.5527; switch activated
130.6834; move down
131.2705; 20
135.0429; move down
136.3363; 5
138.9475; move left
139.4713; 20
140.5492; end
148.3069; move right
148.9774; 20
150.5208; end
153.2169; move up
154.3578; 15
156.4578; end
161.7251; move down
162.0926; 5
163.2986; end
165.3217; move left
166.3118; 5
168.1268; end
171.1598; move down
172.1689; 5
173.4774; end
175.2877; move left
177.535; 10
178.5858; end
181.2905; move down
181.8556; 5
182.801; end
185.4945; move left
185.9904; 5
187.6177; end
189.7193; move down
190.0779; 1
191.2524; end
191.4127; item collected
191.4127; level complete