###JUNKLINE. IS DISREGARDED IN PARSING
Level_2_Final
Loading Voice Level
-0.007615283; time at start
8.317971; start
13.79795; instruction end
24.3968; step up
45.94526; move up
53.02473; 10
58.05409; instruction end
113.7645; move to
123.8653; tent; Medium
127.1788; yes
130.5307; instruction end
138.7877; step down
146.7121; instruction end
150.2381; step down
152.441; instruction end
157.1286; step right
174.7446; instruction end
179.2082; move right
196.3592; 2
199.1522; instruction end
199.3324; item collected
205.6905; move to
210.2595; there; High
214.7529; instruction end
214.7529; go-to object not found
220.7395; move to
226.8187; found them; Medium
231.4368; no
237.2855; dictation timeout
241.0658; construction and; Medium
246.0437; yes
249.6861; instruction end
249.6861; go-to object not found
257.1344; move up
258.7856; 2
261.8123; instruction end
264.5441; move left
281.157; 6
285.3666; instruction end
294.2541; go to
307.5575; instruction and; Medium
311.2589; yes
314.3964; instruction end
314.3964; go-to object not found
320.2232; move up
322.0696; 6
329.3463; instruction end
353.5464; step right
356.9161; instruction end
361.6108; move to
376.106; fountain; Medium
378.7937; yes
382.2769; execute
389.3521; move left
396.6243; 3
399.707; execute
404.7663; step down
407.3338; execute
410.4218; step down
413.0577; execute
416.052; step left
418.2196; execute
420.7227; step down
422.9021; execute
423.1924; item collected
427.3074; move up
429.1636; 10
432.2331; execute
433.8124; switch activated
438.9698; step down
441.4109; execute
444.3974; step down
446.1275; execute
449.954; move right
453.5312; 10
456.2074; execute
458.0524; item collected
462.1297; move right
470.6338; 2
473.2544; execute
477.7391; step down
479.6607; execute
481.5914; step down
483.217; execute
485.0854; step right
486.7961; execute
488.6526; step right
490.4868; execute
493.4834; move down
495.6257; 5
497.899; execute
501.59; move right
506.6472; 5
508.9043; execute
512.2944; move up
514.78; 5
516.8242; execute
525.3232; step up
527.3702; execute
527.5923; switch activated
530.9276; move down
533.7583; 10
536.4269; execute
541.159; move left
543.1909; 6
545.1046; execute
549.1106; move down
561.4148; 2
567.9372; execute
571.475; move left
573.5109; 4
575.9573; execute
579.5714; move down
584.1507; 3
586.1473; execute
589.0066; move left
591.2583; 3
593.1929; execute
595.8057; move down
607.1683; 3
609.0334; execute
622.1246; step right
624.1621; execute
626.324; step down
628.2861; execute
634.1837; step down
636.0922; execute
638.5648; step down
640.5253; execute
640.7524; item collected
640.7524; level complete
Level_1_Final
Loading Keyboard Level
-0.09605179; time at start
11.67673; start
23.07401; move to
27.21361; boat
30.96359; end
37.49913; move up
39.14149; 4
45.20533; step left
50.6205; end
67.13853; move up 
68.44616; 2
74.0096; go to
80.6558; fountain
83.94692; end
94.15337; move right
96.48971; 5
99.28255; end
103.8153; step down
104.9859; end
109.2818; move left
110.6673; 4
112.5216; end
117.1059; move right
118.4344; 8
119.9196; end
121.4239; item collected
125.4945; step right
126.8759; end
130.6115; move down
132.594; 6
134.2154; end
135.3439; switch activated
139.2206; move up
140.6379; 6
142.496; end
147.0628; step left
148.1049; end
151.4321; move up
153.6257; 12
155.0433; end
157.5639; switch activated
162.4446; go to
165.4877; fountain
166.8881; end
173.8681; step down
175.2033; end
178.4389; move left
179.6183; 3
180.8136; end
188.2053; go to
189.5327; tent
190.7106; end
191.5839; item collected
196.5887; 
205.6311; move left
207.5222; 8
208.5235; end
212.6859; step down
214.1958; end
217.3292; move left
218.3999; 6
219.7974; end
224.8363; step left
226.2542; end
226.5439; item collected
234.2433; go to
236.7001; fireplace
237.945; end
245.2744; step left
246.512; end
246.8239; item collected
246.8239; level complete